…
visual inspection whether it made sense to keep all participants
depending on the number of trials they had left:

``` r
trl_viewer <- data_cleaned %>% 
  group_by(id) %>% 
  summarise(first_trlNr = min(trials.thisN),
            last_trlNr = max(trials.thisN),
            total_trlNr = length(trials.thisN))
trl_viewer
```

    ## # A tibble: 21 × 4
    ##       id first_trlNr last_trlNr total_trlNr
    ##    <dbl>       <dbl>      <dbl>       <int>
    ##  1     1           0        959         951
    ##  2     2           0        959         946
    ##  3     3           0        959         938
    ##  4     4           0        959         947
    ##  5     5           0        959         945
    ##  6     6           0        959         942
    ##  7     7           0        959         940
    ##  8     8           0        959         947
    ##  9     9           0        959         944
    ## 10    10           0        959         940
    ## # … with 11 more rows
…
``` r
normality_check <- data_cleaned %>% 
  group_by(id) %>% 
  summarise(statistic_RT = shapiro.test(key_resp_trial.rt)$statistic, 
            p.value_RT = shapiro.test(key_resp_trial.rt)$p.value,
            statistic_trlN = shapiro.test(trials.thisN)$statistic,
            p.value_trlN = shapiro.test(trials.thisN)$p.value) # create table with statistics and p-value of Shapiro-Wilk test of normality of desired variables

normality_check
```

    ## # A tibble: 21 × 5
    ##       id statistic_RT p.value_RT statistic_trlN p.value_trlN
    ##    <dbl>        <dbl>      <dbl>          <dbl>        <dbl>
    ##  1     1        0.993   1.30e- 4          0.955     1.51e-16
    ##  2     2        0.991   2.03e- 5          0.956     2.50e-16
    ##  3     3        0.979   2.68e-10          0.955     2.21e-16
    ##  4     4        0.993   1.59e- 4          0.955     1.58e-16
    ##  5     5        0.987   3.23e- 7          0.955     1.76e-16
    ##  6     6        0.982   1.97e- 9          0.956     2.92e-16
    ##  7     7        0.996   8.58e- 3          0.956     3.37e-16
    ##  8     8        0.995   5.53e- 3          0.956     2.62e-16
    ##  9     9        0.974   6.16e-12          0.955     2.50e-16
    ## 10    10        0.984   1.07e- 8          0.954     1.16e-16
    ## # … with 11 more rows
…
# First level analysis

## Pearson’s <i>r</i> for RT and trial number

``` r
corr_dat_pears <- data_cleaned %>% # create table for statistic, p-value and rank correlation (rho) with values for each participant
  group_by(id) %>% 
  summarise(statistic_corr = cor.test(key_resp_trial.rt, trials.thisN, method = 'pearson')$statistic,
            p.value_corr = cor.test(key_resp_trial.rt, trials.thisN, method = 'pearson')$p.value,
            r_corr = cor.test(key_resp_trial.rt, trials.thisN, method = 'pearson')$estimate)

corr_dat_pears
```

    ## # A tibble: 21 × 4
    ##       id statistic_corr p.value_corr  r_corr
    ##    <dbl>          <dbl>        <dbl>   <dbl>
    ##  1     1          0.844     3.99e- 1  0.0274
    ##  2     2         -8.55      4.93e-17 -0.268 
    ##  3     3          3.20      1.41e- 3  0.104 
    ##  4     4         -4.52      6.99e- 6 -0.145 
    ##  5     5         -4.25      2.35e- 5 -0.137 
    ##  6     6          2.82      4.86e- 3  0.0917
    ##  7     7          0.366     7.15e- 1  0.0119
    ##  8     8         -2.00      4.62e- 2 -0.0648
    ##  9     9          5.47      5.66e- 8  0.176 
    ## 10    10          0.657     5.11e- 1  0.0214
    ## # … with 11 more rows
…
one sample <i>t</i>-Test (not equal to 0)

``` r
corr_dat_pears <- corr_dat_pears %>%
  arrange(id) %>% 
  rowwise %>% 
  mutate(r.z = 0.5*log((1 + r_corr) / (1 - r_corr)))
corr_dat_pears
```

    ## # A tibble: 21 × 5
    ## # Rowwise: 
    ##       id statistic_corr p.value_corr  r_corr     r.z
    ##    <dbl>          <dbl>        <dbl>   <dbl>   <dbl>
    ##  1     1          0.844     3.99e- 1  0.0274  0.0274
    ##  2     2         -8.55      4.93e-17 -0.268  -0.275 
    ##  3     3          3.20      1.41e- 3  0.104   0.104 
    ##  4     4         -4.52      6.99e- 6 -0.145  -0.146 
    ##  5     5         -4.25      2.35e- 5 -0.137  -0.138 
    ##  6     6          2.82      4.86e- 3  0.0917  0.0919
    ##  7     7          0.366     7.15e- 1  0.0119  0.0119
    ##  8     8         -2.00      4.62e- 2 -0.0648 -0.0649
    ##  9     9          5.47      5.66e- 8  0.176   0.177 
    ## 10    10          0.657     5.11e- 1  0.0214  0.0215
    ## # … with 11 more rows
…
